vivado_files/report/rtlsim_perf_batch_1.vcd
$version Generated by VerilatedVcd $end
$date Fri Apr 18 03:30:45 2025 $end
$timescale 1ps $end

 $scope module TOP $end
  $var wire  1 >! ap_clk $end
  $var wire  1 ?! ap_rst_n $end
  $var wire  8 @! m_axis_0_tdata [7:0] $end
  $var wire  1 A! m_axis_0_tready $end
  $var wire  1 B! m_axis_0_tvalid $end
  $var wire 392 C! s_axis_0_tdata [391:0] $end
  $var wire  1 P! s_axis_0_tready $end
  $var wire  1 Q! s_axis_0_tvalid $end
  $scope module finn_design_wrapper $end
   $var wire  1 >! ap_clk $end
   $var wire  1 ?! ap_rst_n $end
   $var wire  8 @! m_axis_0_tdata [7:0] $end
   $var wire  1 A! m_axis_0_tready $end
   $var wire  1 B! m_axis_0_tvalid $end
   $var wire 392 C! s_axis_0_tdata [391:0] $end
   $var wire  1 P! s_axis_0_tready $end
   $var wire  1 Q! s_axis_0_tvalid $end
   $scope module finn_design_i $end
    $var wire  8 # LabelSelect_hls_0_out_V_TDATA [7:0] $end
    $var wire  1 $ LabelSelect_hls_0_out_V_TREADY $end
    $var wire  1 % LabelSelect_hls_0_out_V_TVALID $end
    $var wire 16 & MVAU_hls_0_out_V_TDATA [15:0] $end
    $var wire  1 ' MVAU_hls_0_out_V_TREADY $end
    $var wire  1 ( MVAU_hls_0_out_V_TVALID $end
    $var wire  8 ) MVAU_hls_1_out_V_TDATA [7:0] $end
    $var wire  1 * MVAU_hls_1_out_V_TREADY $end
    $var wire  1 + MVAU_hls_1_out_V_TVALID $end
    $var wire  8 , MVAU_hls_2_out_V_TDATA [7:0] $end
    $var wire  1 - MVAU_hls_2_out_V_TREADY $end
    $var wire  1 . MVAU_hls_2_out_V_TVALID $end
    $var wire  8 / MVAU_hls_3_out_V_TDATA [7:0] $end
    $var wire  1 0 MVAU_hls_3_out_V_TREADY $end
    $var wire  1 1 MVAU_hls_3_out_V_TVALID $end
    $var wire  8 2 StreamingDataWidthConverter_rtl_0_out_V_TDATA [7:0] $end
    $var wire  1 3 StreamingDataWidthConverter_rtl_0_out_V_TREADY $end
    $var wire  1 4 StreamingDataWidthConverter_rtl_0_out_V_TVALID $end
    $var wire  8 5 StreamingDataWidthConverter_rtl_1_out_V_TDATA [7:0] $end
    $var wire  1 6 StreamingDataWidthConverter_rtl_1_out_V_TREADY $end
    $var wire  1 7 StreamingDataWidthConverter_rtl_1_out_V_TVALID $end
    $var wire 392 8 StreamingFIFO_rtl_0_out_V_TDATA [391:0] $end
    $var wire  1 E StreamingFIFO_rtl_0_out_V_TREADY $end
    $var wire  1 F StreamingFIFO_rtl_0_out_V_TVALID $end
    $var wire 56 G StreamingFIFO_rtl_1_out_V_TDATA [55:0] $end
    $var wire  1 I StreamingFIFO_rtl_1_out_V_TREADY $end
    $var wire  1 J StreamingFIFO_rtl_1_out_V_TVALID $end
    $var wire 16 K StreamingFIFO_rtl_2_out_V_TDATA [15:0] $end
    $var wire  1 L StreamingFIFO_rtl_2_out_V_TREADY $end
    $var wire  1 M StreamingFIFO_rtl_2_out_V_TVALID $end
    $var wire  8 N StreamingFIFO_rtl_3_out_V_TDATA [7:0] $end
    $var wire  1 O StreamingFIFO_rtl_3_out_V_TREADY $end
    $var wire  1 P StreamingFIFO_rtl_3_out_V_TVALID $end
    $var wire  8 Q StreamingFIFO_rtl_4_out_V_TDATA [7:0] $end
    $var wire  1 R StreamingFIFO_rtl_4_out_V_TREADY $end
    $var wire  1 S StreamingFIFO_rtl_4_out_V_TVALID $end
    $var wire  8 T StreamingFIFO_rtl_5_out_V_TDATA [7:0] $end
    $var wire  1 U StreamingFIFO_rtl_5_out_V_TREADY $end
    $var wire  1 V StreamingFIFO_rtl_5_out_V_TVALID $end
    $var wire  8 W StreamingFIFO_rtl_6_out_V_TDATA [7:0] $end
    $var wire  1 X StreamingFIFO_rtl_6_out_V_TREADY $end
    $var wire  1 Y StreamingFIFO_rtl_6_out_V_TVALID $end
    $var wire  8 Z StreamingFIFO_rtl_7_out_V_TDATA [7:0] $end
    $var wire  1 [ StreamingFIFO_rtl_7_out_V_TREADY $end
    $var wire  1 \ StreamingFIFO_rtl_7_out_V_TVALID $end
    $var wire  8 ] StreamingFIFO_rtl_8_out_V_TDATA [7:0] $end
    $var wire  1 A! StreamingFIFO_rtl_8_out_V_TREADY $end
    $var wire  1 ^ StreamingFIFO_rtl_8_out_V_TVALID $end
    $var wire 56 _ Thresholding_rtl_0_out_V_TDATA [55:0] $end
    $var wire  1 a Thresholding_rtl_0_out_V_TREADY $end
    $var wire  1 b Thresholding_rtl_0_out_V_TVALID $end
    $var wire  1 >! ap_clk $end
    $var wire  1 >! ap_clk_0_1 $end
    $var wire  1 ?! ap_rst_n $end
    $var wire  1 ?! ap_rst_n_0_1 $end
    $var wire 392 C! in0_V_0_1_TDATA [391:0] $end
    $var wire  1 c in0_V_0_1_TREADY $end
    $var wire  1 Q! in0_V_0_1_TVALID $end
    $var wire  8 @! m_axis_0_tdata [7:0] $end
    $var wire  1 A! m_axis_0_tready $end
    $var wire  1 B! m_axis_0_tvalid $end
    $var wire 392 C! s_axis_0_tdata [391:0] $end
    $var wire  1 P! s_axis_0_tready $end
    $var wire  1 Q! s_axis_0_tvalid $end
    $scope module LabelSelect_hls_0 $end
     $var wire  1 >! ap_clk $end
     $var wire  1 ?! ap_rst_n $end
     $var wire  8 Z in0_V_TDATA [7:0] $end
     $var wire  1 [ in0_V_TREADY $end
     $var wire  1 \ in0_V_TVALID $end
     $var wire  8 # out_V_TDATA [7:0] $end
     $var wire  1 $ out_V_TREADY $end
     $var wire  1 % out_V_TVALID $end
    $upscope $end
    $scope module MVAU_hls_0 $end
     $var wire 16 & MVAU_hls_0_out_V_TDATA [15:0] $end
     $var wire  1 ' MVAU_hls_0_out_V_TREADY $end
     $var wire  1 ( MVAU_hls_0_out_V_TVALID $end
     $var wire 784 d MVAU_hls_0_wstrm_m_axis_0_TDATA [783:0] $end
     $var wire  1 } MVAU_hls_0_wstrm_m_axis_0_TREADY $end
     $var wire  1 ~ MVAU_hls_0_wstrm_m_axis_0_TVALID $end
     $var wire  1 >! ap_clk $end
     $var wire  1 >! ap_clk_1 $end
     $var wire  1 ?! ap_rst_n $end
     $var wire  1 ?! ap_rst_n_1 $end
     $var wire 56 G in0_V_1_TDATA [55:0] $end
     $var wire  1 I in0_V_1_TREADY $end
     $var wire  1 J in0_V_1_TVALID $end
     $var wire 56 G in0_V_tdata [55:0] $end
     $var wire  1 I in0_V_tready $end
     $var wire  1 J in0_V_tvalid $end
     $var wire 16 & out_V_tdata [15:0] $end
     $var wire  1 ' out_V_tready $end
     $var wire  1 ( out_V_tvalid $end
    $upscope $end
    $scope module MVAU_hls_1 $end
     $var wire  8 ) MVAU_hls_1_out_V_TDATA [7:0] $end
     $var wire  1 * MVAU_hls_1_out_V_TREADY $end
     $var wire  1 + MVAU_hls_1_out_V_TVALID $end
     $var wire 64 !! MVAU_hls_1_wstrm_m_axis_0_TDATA [63:0] $end
     $var wire  1 #! MVAU_hls_1_wstrm_m_axis_0_TREADY $end
     $var wire  1 $! MVAU_hls_1_wstrm_m_axis_0_TVALID $end
     $var wire  1 >! ap_clk $end
     $var wire  1 >! ap_clk_1 $end
     $var wire  1 ?! ap_rst_n $end
     $var wire  1 ?! ap_rst_n_1 $end
     $var wire  8 N in0_V_1_TDATA [7:0] $end
     $var wire  1 O in0_V_1_TREADY $end
     $var wire  1 P in0_V_1_TVALID $end
     $var wire  8 N in0_V_tdata [7:0] $end
     $var wire  1 O in0_V_tready $end
     $var wire  1 P in0_V_tvalid $end
     $var wire  8 ) out_V_tdata [7:0] $end
     $var wire  1 * out_V_tready $end
     $var wire  1 + out_V_tvalid $end
    $upscope $end
    $scope module MVAU_hls_2 $end
     $var wire  8 , MVAU_hls_2_out_V_TDATA [7:0] $end
     $var wire  1 - MVAU_hls_2_out_V_TREADY $end
     $var wire  1 . MVAU_hls_2_out_V_TVALID $end
     $var wire 64 %! MVAU_hls_2_wstrm_m_axis_0_TDATA [63:0] $end
     $var wire  1 '! MVAU_hls_2_wstrm_m_axis_0_TREADY $end
     $var wire  1 (! MVAU_hls_2_wstrm_m_axis_0_TVALID $end
     $var wire  1 >! ap_clk $end
     $var wire  1 >! ap_clk_1 $end
     $var wire  1 ?! ap_rst_n $end
     $var wire  1 ?! ap_rst_n_1 $end
     $var wire  8 Q in0_V_1_TDATA [7:0] $end
     $var wire  1 R in0_V_1_TREADY $end
     $var wire  1 S in0_V_1_TVALID $end
     $var wire  8 Q in0_V_tdata [7:0] $end
     $var wire  1 R in0_V_tready $end
     $var wire  1 S in0_V_tvalid $end
     $var wire  8 , out_V_tdata [7:0] $end
     $var wire  1 - out_V_tready $end
     $var wire  1 . out_V_tvalid $end
    $upscope $end
    $scope module MVAU_hls_3 $end
     $var wire  8 / MVAU_hls_3_out_V_TDATA [7:0] $end
     $var wire  1 0 MVAU_hls_3_out_V_TREADY $end
     $var wire  1 1 MVAU_hls_3_out_V_TVALID $end
     $var wire  8 )! MVAU_hls_3_wstrm_m_axis_0_TDATA [7:0] $end
     $var wire  1 *! MVAU_hls_3_wstrm_m_axis_0_TREADY $end
     $var wire  1 +! MVAU_hls_3_wstrm_m_axis_0_TVALID $end
     $var wire  1 >! ap_clk $end
     $var wire  1 >! ap_clk_1 $end
     $var wire  1 ?! ap_rst_n $end
     $var wire  1 ?! ap_rst_n_1 $end
     $var wire  8 W in0_V_1_TDATA [7:0] $end
     $var wire  1 X in0_V_1_TREADY $end
     $var wire  1 Y in0_V_1_TVALID $end
     $var wire  8 W in0_V_tdata [7:0] $end
     $var wire  1 X in0_V_tready $end
     $var wire  1 Y in0_V_tvalid $end
     $var wire  8 / out_V_tdata [7:0] $end
     $var wire  1 0 out_V_tready $end
     $var wire  1 1 out_V_tvalid $end
    $upscope $end
    $scope module StreamingDataWidthConverter_rtl_0 $end
     $var wire  1 >! ap_clk $end
     $var wire  1 ?! ap_rst_n $end
     $var wire 16 K in0_V_TDATA [15:0] $end
     $var wire  1 L in0_V_TREADY $end
     $var wire  1 M in0_V_TVALID $end
     $var wire  8 2 out_V_TDATA [7:0] $end
     $var wire  1 3 out_V_TREADY $end
     $var wire  1 4 out_V_TVALID $end
    $upscope $end
    $scope module StreamingDataWidthConverter_rtl_1 $end
     $var wire  1 >! ap_clk $end
     $var wire  1 ?! ap_rst_n $end
     $var wire  8 T in0_V_TDATA [7:0] $end
     $var wire  1 U in0_V_TREADY $end
     $var wire  1 V in0_V_TVALID $end
     $var wire  8 5 out_V_TDATA [7:0] $end
     $var wire  1 6 out_V_TREADY $end
     $var wire  1 7 out_V_TVALID $end
    $upscope $end
    $scope module StreamingFIFO_rtl_0 $end
     $var wire  1 >! ap_clk $end
     $var wire  1 ?! ap_rst_n $end
     $var wire  2 ,! count [1:0] $end
     $var wire 392 C! in0_V_TDATA [391:0] $end
     $var wire  1 c in0_V_TREADY $end
     $var wire  1 Q! in0_V_TVALID $end
     $var wire  2 -! maxcount [1:0] $end
     $var wire 392 8 out_V_TDATA [391:0] $end
     $var wire  1 E out_V_TREADY $end
     $var wire  1 F out_V_TVALID $end
    $upscope $end
    $scope module StreamingFIFO_rtl_1 $end
     $var wire  1 >! ap_clk $end
     $var wire  1 ?! ap_rst_n $end
     $var wire  2 .! count [1:0] $end
     $var wire 56 _ in0_V_TDATA [55:0] $end
     $var wire  1 a in0_V_TREADY $end
     $var wire  1 b in0_V_TVALID $end
     $var wire  2 /! maxcount [1:0] $end
     $var wire 56 G out_V_TDATA [55:0] $end
     $var wire  1 I out_V_TREADY $end
     $var wire  1 J out_V_TVALID $end
    $upscope $end
    $scope module StreamingFIFO_rtl_2 $end
     $var wire  1 >! ap_clk $end
     $var wire  1 ?! ap_rst_n $end
     $var wire  2 0! count [1:0] $end
     $var wire 16 & in0_V_TDATA [15:0] $end
     $var wire  1 ' in0_V_TREADY $end
     $var wire  1 ( in0_V_TVALID $end
     $var wire  2 1! maxcount [1:0] $end
     $var wire 16 K out_V_TDATA [15:0] $end
     $var wire  1 L out_V_TREADY $end
     $var wire  1 M out_V_TVALID $end
    $upscope $end
    $scope module StreamingFIFO_rtl_3 $end
     $var wire  1 >! ap_clk $end
     $var wire  1 ?! ap_rst_n $end
     $var wire  2 2! count [1:0] $end
     $var wire  8 2 in0_V_TDATA [7:0] $end
     $var wire  1 3 in0_V_TREADY $end
     $var wire  1 4 in0_V_TVALID $end
     $var wire  2 3! maxcount [1:0] $end
     $var wire  8 N out_V_TDATA [7:0] $end
     $var wire  1 O out_V_TREADY $end
     $var wire  1 P out_V_TVALID $end
    $upscope $end
    $scope module StreamingFIFO_rtl_4 $end
     $var wire  1 >! ap_clk $end
     $var wire  1 ?! ap_rst_n $end
     $var wire  2 4! count [1:0] $end
     $var wire  8 ) in0_V_TDATA [7:0] $end
     $var wire  1 * in0_V_TREADY $end
     $var wire  1 + in0_V_TVALID $end
     $var wire  2 5! maxcount [1:0] $end
     $var wire  8 Q out_V_TDATA [7:0] $end
     $var wire  1 R out_V_TREADY $end
     $var wire  1 S out_V_TVALID $end
    $upscope $end
    $scope module StreamingFIFO_rtl_5 $end
     $var wire  1 >! ap_clk $end
     $var wire  1 ?! ap_rst_n $end
     $var wire  2 6! count [1:0] $end
     $var wire  8 , in0_V_TDATA [7:0] $end
     $var wire  1 - in0_V_TREADY $end
     $var wire  1 . in0_V_TVALID $end
     $var wire  2 7! maxcount [1:0] $end
     $var wire  8 T out_V_TDATA [7:0] $end
     $var wire  1 U out_V_TREADY $end
     $var wire  1 V out_V_TVALID $end
    $upscope $end
    $scope module StreamingFIFO_rtl_6 $end
     $var wire  1 >! ap_clk $end
     $var wire  1 ?! ap_rst_n $end
     $var wire  6 8! count [5:0] $end
     $var wire  8 5 in0_V_TDATA [7:0] $end
     $var wire  1 6 in0_V_TREADY $end
     $var wire  1 7 in0_V_TVALID $end
     $var wire  6 9! maxcount [5:0] $end
     $var wire  8 W out_V_TDATA [7:0] $end
     $var wire  1 X out_V_TREADY $end
     $var wire  1 Y out_V_TVALID $end
    $upscope $end
    $scope module StreamingFIFO_rtl_7 $end
     $var wire  1 >! ap_clk $end
     $var wire  1 ?! ap_rst_n $end
     $var wire  2 :! count [1:0] $end
     $var wire  8 / in0_V_TDATA [7:0] $end
     $var wire  1 0 in0_V_TREADY $end
     $var wire  1 1 in0_V_TVALID $end
     $var wire  2 ;! maxcount [1:0] $end
     $var wire  8 Z out_V_TDATA [7:0] $end
     $var wire  1 [ out_V_TREADY $end
     $var wire  1 \ out_V_TVALID $end
    $upscope $end
    $scope module StreamingFIFO_rtl_8 $end
     $var wire  1 >! ap_clk $end
     $var wire  1 ?! ap_rst_n $end
     $var wire  2 <! count [1:0] $end
     $var wire  8 # in0_V_TDATA [7:0] $end
     $var wire  1 $ in0_V_TREADY $end
     $var wire  1 % in0_V_TVALID $end
     $var wire  2 =! maxcount [1:0] $end
     $var wire  8 ] out_V_TDATA [7:0] $end
     $var wire  1 A! out_V_TREADY $end
     $var wire  1 ^ out_V_TVALID $end
    $upscope $end
    $scope module Thresholding_rtl_0 $end
     $var wire  1 >! ap_clk $end
     $var wire  1 ?! ap_rst_n $end
     $var wire 392 8 in0_V_TDATA [391:0] $end
     $var wire  1 E in0_V_TREADY $end
     $var wire  1 F in0_V_TVALID $end
     $var wire 56 _ out_V_TDATA [55:0] $end
     $var wire  1 a out_V_TREADY $end
     $var wire  1 b out_V_TVALID $end
     $var wire  9 T! s_axilite_ARADDR [8:0] $end
     $var wire  1 Z! s_axilite_ARREADY $end
     $var wire  1 R! s_axilite_ARVALID $end
     $var wire  9 T! s_axilite_AWADDR [8:0] $end
     $var wire  1 S! s_axilite_AWREADY $end
     $var wire  1 R! s_axilite_AWVALID $end
     $var wire  1 R! s_axilite_BREADY $end
     $var wire  2 Y! s_axilite_BRESP [1:0] $end
     $var wire  1 X! s_axilite_BVALID $end
     $var wire 32 \! s_axilite_RDATA [31:0] $end
     $var wire  1 R! s_axilite_RREADY $end
     $var wire  2 ]! s_axilite_RRESP [1:0] $end
     $var wire  1 [! s_axilite_RVALID $end
     $var wire 32 V! s_axilite_WDATA [31:0] $end
     $var wire  1 U! s_axilite_WREADY $end
     $var wire  4 W! s_axilite_WSTRB [3:0] $end
     $var wire  1 R! s_axilite_WVALID $end
    $upscope $end
   $upscope $end
  $upscope $end
 $upscope $end
$enddefinitions $end


#5
b00000000 #
1$
0%
b0000000000000000 &
1'
0(
b11111111 )
1*
0+
b11111111 ,
1-
0.
b00000000 /
10
01
b00000000 2
13
04
b00000000 5
16
07
b00000000000000000000000000000000000000000000000000000000000000000000000000000000000000000000000000000000000000000000000000000000000000000000000000000000000000000000000000000000000000000000000000000000000000000000000000000000000000000000000000000000000000000000000000000000000000000000000000000000000000000000000000000000000000000000000000000000000000000000000000000000000000000000000000000000 8
1E
0F
b00000000000000000000000000000000000000000000000000000000 G
1I
0J
b0000000000000000 K
1L
0M
b00000000 N
1O
0P
b00000000 Q
1R
0S
b00000000 T
1U
0V
b00000000 W
1X
0Y
b00000000 Z
1[
0\
b00000000 ]
0^
b00000000000000000000000000000000000000000000000000000000 _
1a
0b
1c
b1010110111100111101100001001010001010111100000001100111011111010010111110110101110111010110011100000110100011110101101001000100100100111010111000011100001100011011001010110010110111001001110101111000010100010100100111010100011110101100001111001010110010100110101000000111011110100010100000001001101111111011100100011101010100000100001110100111111001101000110000100110010000101010111100100101011101110011111010011011111100111011111000101000010101001101111011110100011011110110100001001110000011100001111100001000010000100101101100010101011111100110110000111100011110001001000011111000101100101000111000100001011101001110011101010011111101100010100010000101011110001001011000000011000110001001110011011001011100110100000010000011011011101011100011000010001000110100101001111110111110100 d
1}
0~
b1101011000010001011100100010000110111010100011101011111001010110 !!
1#!
0$!
b0011100111001111010101101100011010001010101011010110100011101111 %!
1'!
0(!
b00000001 )!
1*!
0+!
b00 ,!
b00 -!
b00 .!
b00 /!
b00 0!
b00 1!
b00 2!
b00 3!
b00 4!
b00 5!
b00 6!
b00 7!
b000000 8!
b000000 9!
b00 :!
b00 ;!
b00 <!
b00 =!
1>!
1?!
b00000000 @!
0A!
0B!
b00000000000000000000000000000000000000000000000000000000000000000000000000000000000000000000000000000000000000000000000000000000000000000000000000000000000000000000000000000000000000000000000000000000000000000000000000000000000000000000000000000000000000000000000000000000000000000000000000000000000000000000000000000000000000000000000000000000000000000000000000000000000000000000000000000000 C!
1P!
0Q!
0R!
0S!
b000000000 T!
0U!
b00000000000000000000000000000000 V!
b1111 W!
0X!
b00 Y!
0Z!
0[!
b00000000000000000000000000000000 \!
b00 ]!
#10
#15
0>!
1A!
#20
#25
1~
1$!
1(!
1+!
1>!
b11011110101010101101110001011000101100010011111010110110110011010010001011110010111111011001001010001111110111010100011001111010001001100110001011100110100010011010001101000100101011010000000100110011100110000111110101001111111100101011001001010001110011101100101011010000010100011001110010001001001100111101010111011110110000101000111010101100101001111100010001101000010100111001010100111110 C!
1Q!
#30
#35
0>!
#40
#45
b11011110101010101101110001011000101100010011111010110110110011010010001011110010111111011001001010001111110111010100011001111010001001100110001011100110100010011010001101000100101011010000000100110011100110000111110101001111111100101011001001010001110011101100101011010000010100011001110010001001001100111101010111011110110000101000111010101100101001111100010001101000010100111001010100111110 8
1F
b0001111101101100111111111110111101000011110101010111101000100100011100000011001110100100111100111000000001111001100011011011100000001000101011111000000000001011000110010110000000000011111111100010111110001010001011001100010100001010100101111010000000010110011010010011100110010000000011111101011111100001001111001111011111111010011111001101000001111110010111100110111001010010001110010000010101100010111110110111100100000001010000110001000001111111001101011101010000001111111100000010100100000000101100010101000000000000000101111001000000000100100011110001110000000001100011011110001010000001111011001011111000000001100011101110010110000010110000111100100001001100100001011110101101111111111000100111000011001011111111111110100111001101100010001011000010001110000001110001010100100000 d
b0100011000000111011011011000101111111101000100101110011001101010 !!
b1101111001001101000000010010000001011110111111001001100100001101 %!
b01 ,!
1>!
b11101011101111101000001110100000110110101010011010011100011100000000000111101100101101111000010100110011010101011011110110001111110101010001000101011111111110010100011100010110010110001111111111000111100001101111011011100101101100000100101011100001101100110000100001001001011111001100111000111110011001011000010000110101111101100001100111101100110000010000111011000100011000101101011101010110 C!
#50
#55
0>!
#60
#65
b11101011101111101000001110100000110110101010011010011100011100000000000111101100101101111000010100110011010101011011110110001111110101010001000101011111111110010100011100010110010110001111111111000111100001101111011011100101101100000100101011100001101100110000100001001001011111001100111000111110011001011000010000110101111101100001100111101100110000010000111011000100011000101101011101010110 8
b1111111011111111010000000000010001011101111110000010101010100000111101111110000011100001000000000010010010001010010000000000000011111101111001100001011001100111111000000000001100010100001000000000110101000111111111111111111101101010100110111111110111100001100000000000000010100111011000000000000001101111101111111111111100000001001101111111111111111100101110000000001111011000101000011101100000011110001000110110001011001110010010110100000001010110001001000101000101101011111101000001001110001010000101011101000000000010111000011010000000000100101111000000000000000001010101010010000000001010111001101000101111111001111010011110110000000000110100100000111111111111000010010101100000001100001100011100001100001111001110110000110111111110101111110101110110000000001001010101011001110001 d
0}
b1100010001101110101010101011001110101001010101100101000110011110 !!
0#!
b1110011111011100110010000001011110110111001011000011011100011010 %!
0'!
0*!
b01 -!
1>!
b01110100100100101110101000100010010000000010100101100010110010011001101000110101010000110000101101000100010101001000010011011010001010111010010101011110001111001000101000100100010100100011010001011010111100100000110011010011110001000101011000100110111000010011111111100001010001000110011100110001110101110011110101000110111110111111101110100010011011110101011001011111111110100111010100100011 C!
#70
#75
0>!
#80
#85
b01110100100100101110101000100010010000000010100101100010110010011001101000110101010000110000101101000100010101001000010011011010001010111010010101011110001111001000101000100100010100100011010001011010111100100000110011010011110001000101011000100110111000010011111111100001010001000110011100110001110101110011110101000110111110111111101110100010011011110101011001011111111110100111010100100011 8
1>!
b00001101100100100100001101011111011010000001100000010011100100110000100010001101100001100100011001001010000110000110001101110111111011010000101100110001001011110000111101000001011110110000010001111010001001111001110001101110101110001111101000100101111111100000000011111010001110001100011100110001110010011000011011000001000111111101101010100100110010110001011001001010101011101100000011100001 C!
#90
#95
0>!
#100
#105
b00001101100100100100001101011111011010000001100000010011100100110000100010001101100001100100011001001010000110000110001101110111111011010000101100110001001011110000111101000001011110110000010001111010001001111001110001101110101110001111101000100101111111100000000011111010001110001100011100110001110010011000011011000001000111111101101010100100110010110001011001001010101011101100000011100001 8
1>!
b10000011011110110000010010011110001111000100110101011111011011010000000110101100011110101010001101100011110001101000101010110011101011101001000001001011000111010101111100110101100001101000011101010000110101101000101011010000011111101101101001010111011111111101100001010101011001001100101001011011000100001111000111100101100111000000011011100100000000011010110111101001100000101100010111101100 C!
#110
#115
0>!
#120
#125
b10000011011110110000010010011110001111000100110101011111011011010000000110101100011110101010001101100011110001101000101010110011101011101001000001001011000111010101111100110101100001101000011101010000110101101000101011010000011111101101101001010111011111111101100001010101011001001100101001011011000100001111000111100101100111000000011011100100000000011010110111101001100000101100010111101100 8
b00000001110101101111100001110100100110111011011111110010 _
1b
1>!
b01001110001101010110101101101001000011101101010110000100100011111011100101101101110111100101101101110110110110101001100010110001111001000011100100001101100011000111100111001100100001111000001110001010100101000101000000111001100100111010110101111000001000111101101001011100110011100110010010001001011000010001010000100001000100010110101011110110011100001110000011000000101101100011111000010010 C!
#130
#135
0>!
#140
#145
b01001110001101010110101101101001000011101101010110000100100011111011100101101101110111100101101101110110110110101001100010110001111001000011100100001101100011000111100111001100100001111000001110001010100101000101000000111001100100111010110101111000001000111101101001011100110011100110010010001001011000010001010000100001000100010110101011110110011100001110000011000000101101100011111000010010 8
b00000001110101101111100001110100100110111011011111110010 G
1J
b00000001111111001110011100100011111101100010010101101010 _
b01 .!
1>!
b11100100000010111111111011110010110010010111100101011100000001111110111111001010000111101101011000111111111101110000101011011001011100111000111010000001101110011010111001000001111010111010000100001100111010001100111100110110000111100001101101000111001101101110111000010001110001001010000000100100001111101011001001101110110000101011011101011001100011000000010110101001000111010000010110100100 C!
#150
#155
0>!
#160
#165
b11100100000010111111111011110010110010010111100101011100000001111110111111001010000111101101011000111111111101110000101011011001011100111000111010000001101110011010111001000001111010111010000100001100111010001100111100110110000111100001101101000111001101101110111000010001110001001010000000100100001111101011001001101110110000101011011101011001100011000000010110101001000111010000010110100100 8
b00000001111111001110011100100011111101100010010101101010 G
b00000000110000110000011010010000101100101000100111000100 _
b01 /!
1>!
b01001100110100111010111001001110010110110001111001010011000001001001000110111001011010101010000111101110101010010110110110101001100100100110111100000010110001001111010110100011101001000001101101111001011101110100110001101111010011101011111110010101001101011110100111101010111100000100110111101100000100011011100001101110101010100011010111100100010010110001101110011111011010001111100100100110 C!
#170
#175
0>!
#180
#185
b01001100110100111010111001001110010110110001111001010011000001001001000110111001011010101010000111101110101010010110110110101001100100100110111100000010110001001111010110100011101001000001101101111001011101110100110001101111010011101011111110010101001101011110100111101010111100000100110111101100000100011011100001101110101010100011010111100100010010110001101110011111011010001111100100100110 8
b00000000110000110000011010010000101100101000100111000100 G
b00000000100000101100000100000000010110101010111011100111 _
1}
1>!
b01011000110011110010100101011111111101011011010010100110100100001100100011110101100110111100111100000100000010001010010110011011110110000110110110111001100100100011011011100110011010011011011101100010001111010100111110001101111111111110101011011010000001010011011101000001011001100001000010100101000110100111100010101110101011110100110010100101101011110111000011010110101001111010011100001011 C!
#190
#195
0>!
#200
#205
b01011000110011110010100101011111111101011011010010100110100100001100100011110101100110111100111100000100000010001010010110011011110110000110110110111001100100100011011011100110011010011011011101100010001111010100111110001101111111111110101011011010000001010011011101000001011001100001000010100101000110100111100010101110101011110100110010100101101011110111000011010110101001111010011100001011 8
b00000000100000101100000100000000010110101010111011100111 G
b00000001001000001010111110000110111010010010011101011111 _
b0011111110000000011111111011100011100000000000010001100000000011111100000000010100000001111111111111011111000000001111111000010110111111010000110010001111000100000001011001010101111000000000000011100011111100000101111110111110011111111111111111110111110000000000000000011010111111000000000000000100000011111110001010001101100000000100001101011010111100000111111011110110011111100000000011111110011111100000000000111111101011111111101010001111100000000000000010111111111010000001000001000011100111111100000000000000001011001111111000000000001111111111110100000100110101011111111111111000001011111000100001101100100110011111000000000101001011000010111111110000000111110100000101111111101001111100000000011110111100001111110101111110111110011110000101010000010110001011010101100000000000 d
1>!
b10000000110001111111100010110101011100100100010000000000110010001010011110001101001110011100011011010001100000110101100010101111101000000101100111000111000001101010100110010010100111010000000110011000110010110111101011010010010111100001010110010001111000000101101000000011101101100011001100001010101000101011011001000010101011001011111100000001011010111101111111110010000110010001011010111011 C!
#210
#215
0>!
#220
#225
b10000000110001111111100010110101011100100100010000000000110010001010011110001101001110011100011011010001100000110101100010101111101000000101100111000111000001101010100110010010100111010000000110011000110010110111101011010010010111100001010110010001111000000101101000000011101101100011001100001010101000101011011001000010101011001011111100000001011010111101111111110010000110010001011010111011 8
b00000001001000001010111110000110111010010010011101011111 G
b00000000000011110100111100101111100110010101000001011100 _
b0000000111111111101101011101100000000111111010100100000000111100001101111100100000000011110100011111000000011111111110010111110000000000111111101111111000011011011011011000010001110100111111110000111000000111111010000001111111100000011111100111101111110000000011011101111111110000000000000101010000111111101000010001000000010111111110000001010000001110000000001010100111100001111000000001001111010001111111111111110111110010000001001110110011111111011111111101111100000010001101111111110101001000000111111100110101111111100000011111000100101000000000000000100100111111110000000001001101011100000110001011000011011100100000011110101011011111111111111111000011111000001111111101010000010101000000011001011101001111100000000000111011101100000000000000001110000111101000000001000000111001 d
1>!
b00110111111011000110101100001100011001111110101010010000000100101111111111000101100101001100000111000100111110111011011100001111001000100100101110000101101000101011000010101010011010101111011001111011001111001110110101111000000010001010100100101000101011110111001111001110110001011010101001010100110011011100010001001101101100010010001100010111110001010000111011111100111011100011011100110001 C!
#230
#235
0>!
#240
#245
b00110111111011000110101100001100011001111110101010010000000100101111111111000101100101001100000111000100111110111011011100001111001000100100101110000101101000101011000010101010011010101111011001111011001111001110110101111000000010001010100100101000101011110111001111001110110001011010101001010100110011011100010001001101101100010010001100010111110001010000111011111100111011100011011100110001 8
b00000000000011110100111100101111100110010101000001011100 G
b00000001011100011010101011110110110000010110010110101001 _
b1111111111001101110100000001111111110110001011110001111111000111111101111000000111111000111001110000000000111111011011111111000000001111110001111110110111100100100000001001100011010101000000000000000100000100001011111111100000111001110001110111111000000100110011111111111111000000001011111111110001111100001000100000000011110101000011111110000111110000000010111100000001111000000000010101111011111111111111111111111111111111111111111001111111000000111111101011111111111100000111111101100011111111101111010011111000000001111111100000001111101111110001100100000000000000111001110110111000001111111001111011111111000010011111011111010111101000011111111110000001111111100011111111100010000101111011111000101111100000000111111111001001111101111111111100111111111000000110000000111101111111 d
1>!
b01001111011000010011011110011000111110001101101010000110101000000001101100001000100101111111100110100110001001011111111000010111111110101100000001110100110110010010111001001111010111000001101010010010111100111000001100110001011100100001101100100111100111010011011000001100001110110001111111011111110011101101110101011000000101110110000110111111011010010111000010001011100111000101011000011011 C!
#250
#255
0>!
#260
