vivado_files/report/verify_rtlsim_3.vcd
$version Generated by VerilatedVcd $end
$date Fri Apr 18 03:30:28 2025 $end
$timescale 1ps $end

 $scope module TOP $end
  $var wire  1 # ap_clk $end
  $var wire  1 $ ap_rst_n $end
  $var wire  8 % m_axis_0_tdata [7:0] $end
  $var wire  1 & m_axis_0_tready $end
  $var wire  1 ' m_axis_0_tvalid $end
  $var wire 392 ( s_axis_0_tdata [391:0] $end
  $var wire  1 5 s_axis_0_tready $end
  $var wire  1 6 s_axis_0_tvalid $end
  $scope module finn_design_wrapper $end
   $var wire  1 # ap_clk $end
   $var wire  1 $ ap_rst_n $end
   $var wire  8 % m_axis_0_tdata [7:0] $end
   $var wire  1 & m_axis_0_tready $end
   $var wire  1 ' m_axis_0_tvalid $end
   $var wire 392 ( s_axis_0_tdata [391:0] $end
   $var wire  1 5 s_axis_0_tready $end
   $var wire  1 6 s_axis_0_tvalid $end
  $upscope $end
 $upscope $end
$enddefinitions $end


#5
1#
1$
b00000000 %
0&
0'
b00000000000000000000000000000000000000000000000000000000000000000000000000000000000000000000000000000000000000000000000000000000000000000000000000000000000000000000000000000000000000000000000000000000000000000000000000000000000000000000000000000000000000000000000000000000000000000000000000000000000000000000000000000000000000000000000000000000000000000000000000000000000000000000000000000000 (
15
06
#10
#15
0#
1&
#20
#25
1#
16
#30
#35
0#
#40
#45
1#
#50
#55
0#
#60
#65
1#
b00000000000000000000000000000000000000000000000000000000000000000000000000000000000000000000000000000000000000000000000000000000000000000000000000011111110010101111110110010110000010110000000000000000000000000000000000000000000000000000000000000000000000000000000000000000000000000000000000000000000000000000000000000000000000000000000000000000000000000000000000000000000000000000000000000000 (
#70
#75
0#
#80
#85
1#
b00000000000000000000000000000000000000000000000000000000000000000000000000000000000000000110101111111101111110111111101111000101000101010000000000000000000000000000000000000000000000000000000000000000000000000000000000000000000000000000000000000000000000000000000000000000000000000000000000000000000000000000000001101011111111011111101111111011001001010000000000000000000000000000000000000000 (
#90
#95
0#
#100
#105
1#
b00000000001100111101110011111011111110111111110111111011111110111111101111111011111111010000000000000000000000000000000000000000000000000000000000000000000000000000000000000000000000000000000000000000000000000000000000000000000000000000000000111110011011011010100111111101111110111111101111111011101111100110111000000000000000000000000000000000000000000000000000000000000000000000000000000000 (
#110
#115
0#
#120
#125
1#
b11111011111110111111101111111101110111010011111100000000000000000000000000000000000000000000000000000000000000000000000000000000000000000000000000000000000000000000000000000000111111011111110111111101110111101110101011111101111111011111110111111101111111111011011000000000000000000000000000000000000000000000000000000000000000000000000000000000000000000000000000000000000000000000000000000000 (
#130
#135
0#
#140
#145
1#
b00000000000000000000000000000000000000000000000000000000000000000000000000000000000000000000000000000101011100011111001111111011111001100001111100000000000000000000101010001001110111001111101111111101111110111110011100100000000000000000000000000000000000000000000000000000000000000000000000000000000000000000000000000000000000000000000001101001111110111111101110000000001111100100110110010011 (
#150
#155
0#
#160
#165
1#
b00000000000000000000000000000000000000000010001111111011111111011100100000011111000000000000000000000000000000000000000000000000000111101100100111111011111110110010010100000000000000000000000000000000000000000000000000000000000000000000000000000000000000000000000000100011111110111111110111111011011011010000000000000000000000000000000000000000000101001011110011111101111110111111101100100101 (
#170
#175
0#
#180
#185
1#
b11111101111110110110110100000000000000000000000000000000000000000000000000000000000000001111101111111011100011000000000000000000000000000000000000000000000000000000000000000000000000000000000000000000000000001010010011111101111111111100101000100000000000000000000000000000000000000000000000000000000000000000000011111101111111010010010100000000000000000000000000000000000000000000000000000000 (
#190
#195
0#
#200
#205
1#
b00000000000000000000000000000000111110111111101111011001000000000000000000000000000000000000000000000000000000000000000000000000000000000000000000000000000111101110011011111101111110111110011100111111000101010000000000000000000000000000000000000000000000001111101111111011110110010000000000000000000000000000000000000000000000000000000000000000000000000000000000000000000000000010001111111011 (
#210
#215
0#
#220
#225
1#
b00000000000000000000000000000000000000000000000000000000000000000000000000000000000000000000000000000000000000001011010011111011111110111111101111011101101101100000000000000000000000000000000000000000111110111111101111011001000000000000000000000000000000000000000000000000000000000000000000000000000000000000000000000000000000000011110111011101111110111111101111111011100100000000000000000000 (
#230
#235
0#
#240
#245
1#
b00000000000000000000000000000000000000000000000000000000000000001001001111111011111110111111101111111101111110111111101111111011111110111111110111111011111110110111000100000000000000000000000000000000000000000000000000000000000000000000000000000000000000000000000000000000000000000000000011111101111111011111110111111101111111111111110111111101111001000100100101001001111111011111110111011010 (
#250
#255
0#
#260
#265
1#
b00000000000000000000000000000000011010111111110111111011111110111111101111111011111111011000111000111110000000000000000000000000000000000000000000000000000000000000000000000000000000000000000000000000000000000000000000000000000000000000101000100011101111011110011011111101111110111111101111111011111110111111110111111011111001100001111100000000000000000000000000000000000000000000000000000000 (
#270
#275
0#
#280
#285
1#
b00000000000000000000000000000000000000000000000000000000000000000000000000000000000000000000000000000000000000000000000000000000000000000000000000000000000000000000000000000000000000000000000000000000000111100100100001000111101011011111101110101110010010000000000000000000000000000000000000000000000000000000000000000000000000000000000000000000000000000000000000000000000000000000000000000000 (
#290
#295
0#
#300
#305
1#
b00000000000000000000000000000000000000000000000000000000000000000000000000000000000000000000000000000000000000000000000000000000000000000000000000000000000000000000000000000000000000000000000000000000000000000000000000000000000000000000000000000000000000000000000000000000000000000000000000000000000000000000000000000000000000000000000000000000000000000000000000000000000000000000000000000000 (
#310
#315
0#
#320
#325
1#
#330
#335
0#
#340
#345
1#
06
