vivado_files/report/verify_rtlsim_2.vcd
$version Generated by VerilatedVcd $end
$date Fri Apr 18 03:30:26 2025 $end
$timescale 1ps $end

 $scope module TOP $end
  $var wire  1 # ap_clk $end
  $var wire  1 $ ap_rst_n $end
  $var wire  8 % m_axis_0_tdata [7:0] $end
  $var wire  1 & m_axis_0_tready $end
  $var wire  1 ' m_axis_0_tvalid $end
  $var wire 392 ( s_axis_0_tdata [391:0] $end
  $var wire  1 5 s_axis_0_tready $end
  $var wire  1 6 s_axis_0_tvalid $end
  $scope module finn_design_wrapper $end
   $var wire  1 # ap_clk $end
   $var wire  1 $ ap_rst_n $end
   $var wire  8 % m_axis_0_tdata [7:0] $end
   $var wire  1 & m_axis_0_tready $end
   $var wire  1 ' m_axis_0_tvalid $end
   $var wire 392 ( s_axis_0_tdata [391:0] $end
   $var wire  1 5 s_axis_0_tready $end
   $var wire  1 6 s_axis_0_tvalid $end
  $upscope $end
 $upscope $end
$enddefinitions $end


#5
1#
1$
b00000000 %
0&
0'
b00000000000000000000000000000000000000000000000000000000000000000000000000000000000000000000000000000000000000000000000000000000000000000000000000000000000000000000000000000000000000000000000000000000000000000000000000000000000000000000000000000000000000000000000000000000000000000000000000000000000000000000000000000000000000000000000000000000000000000000000000000000000000000000000000000000 (
15
06
#10
#15
0#
1&
#20
#25
1#
16
#30
#35
0#
#40
#45
1#
#50
#55
0#
#60
#65
1#
b00000000000000000000000000000000000000000000000000000000000000000000000000000000000000000000000000000000000000000000000000000000011011011111111000100110000000000000000000000000000000000000000000000000000000000000000000000000000000000000000000000000000000000000000000000000000000000000000000000000000000000000000000000000000000000000000000000000000000000000000000000000000000000000000000000000 (
#70
#75
0#
#80
#85
1#
b00000000000000000000000000000000000000000000000000000000000000000000000000000000111100011000011100000000000000000000000000000000000000000000000000000000000000000000000000000000000000000000000000000000000000000000000000000000000000000000000000000000000000000000000000000000000000000000000000000000010100101111110001010111000000000000000000000000000000000000000000000000000000000000000000000000 (
#90
#95
0#
#100
#105
1#
b00000000000000000000000000111111111111100101010000000000000000000000000000000000000000000000000000000000000000000000000000000000000000000000000000000000000000000000000000000000000000000000000000000000000000000000000000000000000000000000000000000000100101101111010000101101000000000000000000000000000000000000000000000000000000000000000000000000000000000000000000000000000000000000000000000000 (
#110
#115
0#
#120
#125
1#
b00000000000000000000000000000000000000000000000000000000000000000000000000000000000000000000000000000000000000000000000000000000000000000000000000000000000000000000000000000000000000000000000000001011110111111100101000000000000000000000000000000000000000000000000000000000000000000000000000000000000000000000000000000000000000000000000000000000000000000000000000000000000000000000000000000000 (
#130
#135
0#
#140
#145
1#
b00000000000000000000000000000000000000000000000000000000000000000000000000000000000000000000000000000000000000000000000000000000000000000000000011000011111111100101111100000000000000000000000000000000000000000000000000000000000000000000000000000000000000000000000000000000000000000000000000000000000000000000000000000000000000000000000000000000000000000000000000000000110110001111111000100000 (
#150
#155
0#
#160
#165
1#
b00000000000000000000000000000000000000000000000000000000000000000000000000000000000000000000100011001101111011010011100100000000000000000000000000000000000000000000000000000000000000000000000000000000000000000000000000000000000000000000000000000000000000000000000000000000000000000000000000000000000000000000000001001101111111101000110000000000000000000000000000000000000000000000000000000000 (
#170
#175
0#
#180
#185
1#
b00000000000000000000000000000000000000000101000111111110101010110000000000000000000000000000000000000000000000000000000000000000000000000000000000000000000000000000000000000000000000000000000000000000000000000000000000000000000000000000000000000000000000000000000010100101111111110111110000000000000000000000000000000000000000000000000000000000000000000000000000000000000000000000000000000000 (
#190
#195
0#
#200
#205
1#
b11111110011110000000000000000000000000000000000000000000000000000000000000000000000000000000000000000000000000000000000000000000000000000000000000000000000000000000000000000000000000000000000000000000000000000000000011010111111010000001100000000000000000000000000000000000000000000000000000000000000000000000000000000000000000000000000000000000000000000000000000000000000000000000000000000000 (
#210
#215
0#
#220
#225
1#
b00000000000000000000000000000000000000000000000000000000000000000000000000000000000000000000000000000000000000000000000000000000000000000000000000000000000000001000111011111110100101110000000000000000000000000000000000000000000000000000000000000000000000000000000000000000000000000000000000000000000000000000000000000000000000000000000000000000000000000000000000000000000000000000000010011111 (
#230
#235
0#
#240
#245
1#
b00000000000000000000000000000000000000000000000000000000000000000000000000000000000000000000000000000000010000101111111011111011001111010000000000000000000000000000000000000000000000000000000000000000000000000000000000000000000000000000000000000000000000000000000000000000000000000000000000000000000000000000000000000000000000000100001011111110111001000000000000000000000000000000000000000000 (
#250
#255
0#
#260
#265
1#
b00000000000000000000000000000000000000000000000000000000011110011111111011010111000010100000000000000000000000000000000000000000000000000000000000000000000000000000000000000000000000000000000000000000000000000000000000000000000000000000000000000000000000000000000000000000000000111100110111111110100011010000000000000000000000000000000000000000000000000000000000000000000000000000000000000000 (
#270
#275
0#
#280
#285
1#
b00000000000000000000000000000000000000000000000000000000000000000000000000000000000000000000000000000000000000000000000000000000000000000000000000000000000000000000000000000000000000000000000000000000000000000000000000000000000010101011000011000110000001010000000000000000000000000000000000000000000000000000000000000000000000000000000000000000000000000000000000000000000000000000000000000000 (
#290
#295
0#
#300
#305
1#
b00000000000000000000000000000000000000000000000000000000000000000000000000000000000000000000000000000000000000000000000000000000000000000000000000000000000000000000000000000000000000000000000000000000000000000000000000000000000000000000000000000000000000000000000000000000000000000000000000000000000000000000000000000000000000000000000000000000000000000000000000000000000000000000000000000000 (
#310
#315
0#
#320
#325
1#
#330
#335
0#
#340
#345
1#
06
