vivado_files/report/verify_rtlsim_1.vcd
$version Generated by VerilatedVcd $end
$date Fri Apr 18 03:30:23 2025 $end
$timescale 1ps $end

 $scope module TOP $end
  $var wire  1 # ap_clk $end
  $var wire  1 $ ap_rst_n $end
  $var wire  8 % m_axis_0_tdata [7:0] $end
  $var wire  1 & m_axis_0_tready $end
  $var wire  1 ' m_axis_0_tvalid $end
  $var wire 392 ( s_axis_0_tdata [391:0] $end
  $var wire  1 5 s_axis_0_tready $end
  $var wire  1 6 s_axis_0_tvalid $end
  $scope module finn_design_wrapper $end
   $var wire  1 # ap_clk $end
   $var wire  1 $ ap_rst_n $end
   $var wire  8 % m_axis_0_tdata [7:0] $end
   $var wire  1 & m_axis_0_tready $end
   $var wire  1 ' m_axis_0_tvalid $end
   $var wire 392 ( s_axis_0_tdata [391:0] $end
   $var wire  1 5 s_axis_0_tready $end
   $var wire  1 6 s_axis_0_tvalid $end
  $upscope $end
 $upscope $end
$enddefinitions $end


#5
1#
1$
b00000000 %
0&
0'
b00000000000000000000000000000000000000000000000000000000000000000000000000000000000000000000000000000000000000000000000000000000000000000000000000000000000000000000000000000000000000000000000000000000000000000000000000000000000000000000000000000000000000000000000000000000000000000000000000000000000000000000000000000000000000000000000000000000000000000000000000000000000000000000000000000000 (
15
06
#10
#15
0#
1&
#20
#25
1#
16
#30
#35
0#
#40
#45
1#
b11111111101010110111110101110100000000000000000000000000000000000000000000000000000000000000000000000000000000000000000000000000000000000000000000000000000000000000000000000000000000000000000000000000000000000000000000000000000000000000000000000000000000000000000000000000000000000000000000000000000000000000000000000000000000000000000000000000000000000000000000000000000000000000000000000000 (
#50
#55
0#
#60
#65
1#
b00000000000000000000000000000000000000000000000000000000000000000000000000000000000000000000000000000000000000000000000000000000000000000001111011011010111111011111110111111101111111011111110111111101101010010000000000000000000000000000000000000000000000000000000000000000000000000000000000000000000000000000000000000000000000000000000000000000000000000000000000000000010111011001011011111111 (
#70
#75
0#
#80
#85
1#
b00000000000000000000000000000000000000000000000000000000000000000000000000000000100011001111110111001110000001100000000000001100001000001101001011111101111110100011010000000000000000000000000000000000000000000000000000000000000000000000000000000000000000000000000000000000000000000000000000000000000000000111101011111101111111011011000010001110110101011111110111111101111111011010100100000000 (
#90
#95
0#
#100
#105
1#
b00000000000000000000000001000001111111011111110111010001000000000000000000000000000000000001001000011111000000000000000000000000000000000000000000000000000000000000000000000000000000000000000000000000000000000000000000000000000000000000000000000000010000011111110111111000011110100000000000000000000000000001100111010010111110110100110100000000000000000000000000000000000000000000000000000000 (
#110
#115
0#
#120
#125
1#
b11110111010011000000000000000000000000000000000000000000000000000000000000000000000000000000000000000000000000000000000000000000000000000000000000000000000000000000000000000000000000000000000000001010110001101111110111110111011101010000000000000000000000000000000000000000000000000000000000000000000000000000000000000000000000000000000000000000000000000000000000000000000000000000000000000000 (
#130
#135
0#
#140
#145
1#
b00000000000000000000000000000000000000000000000000000000000000000000000000000000000000000000000000000000000000000000000000000000000000000000000000000000100100001111110111111101100000000000000000000000000000000000000000000000000000000000000000000000000000000000000000000000000000000000000000000000000000000000000000000000000000000000000000000000000000000000000000000000001111111110011111111101 (
#150
#155
0#
#160
#165
1#
b00000000000000000000000000000000000000000000000000000000000000000000000000000000000000000000000000000000001000111110100111111101111010100001100100000000000000000000000000000000000000000000000000000000000000000000000000000000000000000000000000000000000000000000000000000000000000000000000000000000000000000000000000000000000011001001111111111101111101101011000000000000000000000000000000000000 (
#170
#175
0#
#180
#185
1#
b00000000000000000000000000000000000000000000000000000000000011001011110111111101111110000100111000000000000000000000000000000000000000000000000000000000000000000000000000000000000000000000000000000000000000000000000000000000000000000000000000000000000000000000000000000000000000001000110111111101111111011100011000000000000000000000000000000000000000000000000000000000000000000000000000000000 (
#190
#195
0#
#200
#205
1#
b00000000000011001010110111111101111111011000011000000000000000000000000000000000000000000000000000000000000000000000000000000000000000000000000000000000000000000000000000000000000000000000000000000000000000000000000000000000000000001000110111111101111111011100100000010011000000000000000000000000000000000000000000000000000000000000000000000000000000000000000000000000000000000000000000000000 (
#210
#215
0#
#220
#225
1#
b00000000000000000000000000000000000000000000000000000000000000000000000000000000000000000000000000000000000000000000000000000000000000000000000000000000000000000000000000000000000000000001100111111101111111011111100000000000000000000000000000000000000000000000000000000000000000000000000000000000000000000000000000000000000000000000000000000000000000000000000000000000000000000000000000000000 (
#230
#235
0#
#240
#245
1#
b00000000011110111111110111111101111111011111110111111101111111011111110110100110100011111010100011111101111111011111110111111101111111011111110111111101111110000000000000000000000000000000000000000000000000000000000000000000000000000000101010010011100101101001011010010110001001010001010000010100000001010000000000000101000101000001010000010100000101000010101111111101111111011111100000000000 (
#250
#255
0#
#260
#265
1#
b00101001011110110111101110011011111111011111110111111101101001100111101101111011011110110111011000000000000000000000000000000000000000000000000000000000000000000000000000000000001110010111010101110101101010011111011111110111111110011111110111111101111111011111110111111101111111011111110111111101111111011111110111111101101011100000000000000000000000000000000000000000000000000000000000000000 (
#270
#275
0#
#280
#285
1#
b00000000000000000000000000000000000000000000000000000000000000000000000000000000000000000000000000000000000000000000000000000000000000000000000000000000000000000000000000000000000000000000000000000000000000000000000000000000000000000000000000000000000000000000000000000000000000000000000000000000000000000000000000000000000000000000000000000000000000000000000000000000000000000000000000000000 (
#290
#295
0#
#300
#305
1#
#310
#315
0#
#320
#325
1#
#330
#335
0#
#340
#345
1#
06
