vivado_files/report/verify_rtlsim_0.vcd
$version Generated by VerilatedVcd $end
$date Fri Apr 18 03:30:18 2025 $end
$timescale 1ps $end

 $scope module TOP $end
  $var wire  1 # ap_clk $end
  $var wire  1 $ ap_rst_n $end
  $var wire  8 % m_axis_0_tdata [7:0] $end
  $var wire  1 & m_axis_0_tready $end
  $var wire  1 ' m_axis_0_tvalid $end
  $var wire 392 ( s_axis_0_tdata [391:0] $end
  $var wire  1 5 s_axis_0_tready $end
  $var wire  1 6 s_axis_0_tvalid $end
  $scope module finn_design_wrapper $end
   $var wire  1 # ap_clk $end
   $var wire  1 $ ap_rst_n $end
   $var wire  8 % m_axis_0_tdata [7:0] $end
   $var wire  1 & m_axis_0_tready $end
   $var wire  1 ' m_axis_0_tvalid $end
   $var wire 392 ( s_axis_0_tdata [391:0] $end
   $var wire  1 5 s_axis_0_tready $end
   $var wire  1 6 s_axis_0_tvalid $end
  $upscope $end
 $upscope $end
$enddefinitions $end


#5
1#
1$
b00000000 %
0&
0'
b00000000000000000000000000000000000000000000000000000000000000000000000000000000000000000000000000000000000000000000000000000000000000000000000000000000000000000000000000000000000000000000000000000000000000000000000000000000000000000000000000000000000000000000000000000000000000000000000000000000000000000000000000000000000000000000000000000000000000000000000000000000000000000000000000000000 (
15
06
#10
#15
0#
1&
#20
#25
1#
16
#30
#35
0#
#40
#45
1#
#50
#55
0#
#60
#65
1#
#70
#75
0#
#80
#85
1#
#90
#95
0#
#100
#105
1#
b10101010110001101100011011000110110001101100011011000110110001101100011011110001111111101111111011111110111111101101111000000000000000000000000000000000000000000000000000000000000000000000000000000000000000000000000000000000000000000000000000000000000000000000000000000000000000000000000000000000001001000011110010010111100111111011100101010100000000000000000000000000000000000000000000000000 (
#110
#115
0#
#120
#125
1#
b00001110010000100001000100000000000000000000000000000000000000000000000000000000000000000000000000000000000000000000000000000000000000000000000000000000000000001000110011111110111111101110010111111010111111101111111011111110111000011111111011100011101000110111001001001000011100100100001100000000000000000000000000000000000000000000000000000000000000000000000000000000000000000000000000110100 (
#130
#135
0#
#140
#145
1#
b00000000000000000000000000000000000000000000000000000000000000000000000000000000000000000000000000000000000100101101000111111101010100110000000000000000000000000000000000000000000000000000000000000000000000000000000000000000000000000000000000000000000000000000000000000000000000000000000000000000000000000000000000000000000000000110101011111110111011000001010100111011010000110100001101000011 (
#150
#155
0#
#160
#165
1#
b00000000000000000000000000000000000000000000000000000000001011001110111011111110100000010000000000000000000000000000000000000000000000000000000000000000000000000000000000000000000000000000000000000000000000000000000000000000000000000000000000000000000000000000000000000000000000000101001111111111111010010001011000000000000000000000000000000000000000000000000000000000000000000000000000000000 (
#170
#175
0#
#180
#185
1#
b00000000000001011011101111111110100001010000000000000000000000000000000000000000000000000000000000000000000000000000000000000000000000000000000000000000000000000000000000000000000000000000000000000000000000000000000000000000000000000011111011111110111110010011101100000000000000000000000000000000000000000000000000000000000000000000000000000000000000000000000000000000000000000000000000000000 (
#190
#195
0#
#200
#205
1#
b00000000000000000000000000000000000000000000000000000000000000000000000000000000000000000000000000000000000000000000000000000000000000000000000000000000000000000000000000000000000000000011101011111000110011010000100100000000000000000000000000000000000000000000000000000000000000000000000000000000000000000000000000000000000000000000000000000000000000000000000000000000000000000000000000000000 (
#210
#215
0#
#220
#225
1#
b00000000000000000000000000000000000000000000000000000000000000000000000000000000000000000000000000000000000000000000000000000000000000000011100111110000111110110100101100000000000000000000000000000000000000000000000000000000000000000000000000000000000000000000000000000000000000000000000000000000000000000000000000000000000000000000000000000000000000000000000010110110111111100111111000000000 (
#230
#235
0#
#240
#245
1#
b00000000000000000000000000000000000000000000000000000000000000000000000000000000000000000010001111011011111111101100101100000011000000000000000000000000000000000000000000000000000000000000000000000000000000000000000000000000000000000000000000000000000000000000000000000000000000000000000000000000000000000000000010100110111111101101110100010011000000000000000000000000000000000000000000000000 (
#250
#255
0#
#260
#265
1#
b00000000000000000000000000000000000000000000000101110011111111101110000000011111000000000000000000000000000000000000000000000000000000000000000000000000000000000000000000000000000000000000000000000000000000000000000000000000000000000000000000000000000000000000000001001101111111101111111000100110000000000000000000000000000000000000000000000000000000000000000000000000000000000000000000000000 (
#270
#275
0#
#280
#285
1#
b11111110111111101111001000111101000000000000000000000000000000000000000000000000000000000000000000000000000000000000000000000000000000000000000000000000000000000000000000000000000000000000000000000000000000000000000000110100111111101111111010000101000000000000000000000000000000000000000000000000000000000000000000000000000000000000000000000000000000000000000000000000000000000000000000000000 (
#290
#295
0#
#300
#305
1#
b00000000000000000000000000000000000000000000000000000000000000000000000000000000000000000000000000000000000000000000000000000000000000000000000000000000000000000010100011011011111111101111111001111001000000000000000000000000000000000000000000000000000000000000000000000000000000000000000000000000000000000000000000000000000000000000000000000000000000000000000000000000000000000000000000110100 (
#310
#315
0#
#320
#325
1#
b00000000000000000000000000000000000000000000000000000000000000000000000000000000000000000000000000000000000000000000000000000000000000000000000000000000000000000000000000000000000000000000000000000000000000000000000000000000000000000000000000000000000000000000000000000000000000000000000000000000000000000000000000000000000000000000000000010010110011111111111001111001000000000000000000000000 (
#330
#335
0#
#340
#345
1#
b00000000000000000000000000000000000000000000000000000000000000000000000000000000000000000000000000000000000000000000000000000000000000000000000000000000000000000000000000000000000000000000000000000000000000000000000000000000000000000000000000000000000000000000000000000000000000000000000000000000000000000000000000000000000000000000000000000000000000000000000000000000000000000000000000000000 (
06
